<svg xmlns="http://www.w3.org/2000/svg" data-name="Layer 1" width="714.61015" height="607.43669" viewBox="0 0 714.61015 607.43669" xmlns:xlink="http://www.w3.org/1999/xlink">
    <path d="M677.65967,712.06221l.70715-15.90018a51.35276,51.35276,0,0,1,23.95261-6.06332c-11.504,9.40539-10.06637,27.53575-17.86583,40.18378a30.88876,30.88876,0,0,1-22.65105,14.27411l-9.627,5.8943A51.75981,51.75981,0,0,1,663.08522,708.508a49.99742,49.99742,0,0,1,9.18851-8.53763C674.57941,706.05,677.65967,712.06221,677.65967,712.06221Z" transform="translate(-242.69493 -146.28166)" fill="#f2f2f2" />
    <path d="M805.30223,752.16512a1.54861,1.54861,0,0,1-1.5533,1.55322H385.69876a1.55322,1.55322,0,1,1,0-3.10644H803.74893A1.54866,1.54866,0,0,1,805.30223,752.16512Z" transform="translate(-242.69493 -146.28166)" fill="#ccc" />
    <path d="M937.87393,305.06118H771.16343a19.45344,19.45344,0,0,1-19.43114-19.43177V194.83094a19.45235,19.45235,0,0,1,19.43114-19.43051h166.7105a19.45235,19.45235,0,0,1,19.43114,19.43051v90.79847A19.45343,19.45343,0,0,1,937.87393,305.06118Z" transform="translate(-242.69493 -146.28166)" fill="#f2f2f2" style="isolation:isolate" />
    <path d="M683.35525,305.06118H516.64475a19.45344,19.45344,0,0,1-19.43114-19.43177V194.83094a19.45235,19.45235,0,0,1,19.43114-19.43051h166.7105a19.45235,19.45235,0,0,1,19.43114,19.43051v90.79847A19.45344,19.45344,0,0,1,683.35525,305.06118Z" transform="translate(-242.69493 -146.28166)" fill="#f2f2f2" style="isolation:isolate" />
    <path d="M428.83657,305.06118H262.12607a19.45343,19.45343,0,0,1-19.43114-19.43177V194.83094a19.45235,19.45235,0,0,1,19.43114-19.43051h166.7105a19.45235,19.45235,0,0,1,19.43114,19.43051v90.79847A19.45344,19.45344,0,0,1,428.83657,305.06118Z" transform="translate(-242.69493 -146.28166)" fill="#f2f2f2" style="isolation:isolate" />
    <path d="M683.35556,306.36626H516.64506a20.76,20.76,0,0,1-20.73636-20.737V194.83079a20.75968,20.75968,0,0,1,20.73636-20.73573h166.7105a20.75968,20.75968,0,0,1,20.73637,20.73573v90.79847A20.76,20.76,0,0,1,683.35556,306.36626ZM516.64506,176.70551a18.14624,18.14624,0,0,0-18.12591,18.12528v90.79847a18.14692,18.14692,0,0,0,18.12591,18.12655h166.7105a18.14692,18.14692,0,0,0,18.12592-18.12655V194.83079a18.14624,18.14624,0,0,0-18.12592-18.12528Z" transform="translate(-242.69493 -146.28166)" fill="#00bfa6" />
    <path id="bc1d5882-7e9f-40fc-9823-09d267d208ae-1203" data-name="Path 339" d="M376.9802,178.36511h-.674V159.877a10.70036,10.70036,0,0,0-10.70036-10.70036H326.43541a10.70036,10.70036,0,0,0-10.70054,10.70018v101.4273a10.70036,10.70036,0,0,0,10.70036,10.70035h39.17008a10.70035,10.70035,0,0,0,10.70036-10.70035V191.52527h.674Z" transform="translate(-242.69493 -146.28166)" fill="#e6e6e6" />
    <path id="a47ebcc9-6793-4ccc-8d6c-8894ca4be4c5-1204" data-name="Path 340" d="M374.124,159.16029V262.02046a8.11562,8.11562,0,0,1-8.11268,8.11441H326.03722a8.11683,8.11683,0,0,1-8.118-8.11441V159.16029a8.11665,8.11665,0,0,1,8.11769-8.11423H330.886a3.859,3.859,0,0,0,3.56984,5.31259h22.78988a3.859,3.859,0,0,0,3.56984-5.31259h5.1942a8.1156,8.1156,0,0,1,8.11423,8.11268Z" transform="translate(-242.69493 -146.28166)" fill="#fff" />
    <path d="M364.84429,248.068H327.92717a5.01367,5.01367,0,0,1-5.008-5.008V191.12582a22.894,22.894,0,0,1,22.868-22.86813h19.05716a5.01357,5.01357,0,0,1,5.00791,5.00791V243.06A5.01361,5.01361,0,0,1,364.84429,248.068Z" transform="translate(-242.69493 -146.28166)" fill="#f2f2f2" style="isolation:isolate" />
    <circle id="acf1a688-395f-49f3-a728-a81050b681c5" data-name="Ellipse 7" cx="83.02085" cy="111.62992" r="2.65779" fill="#e6e6e6" />
    <path d="M614.12946,218.64712H584.77633a1.43543,1.43543,0,0,0-.46569.07233,1.559,1.559,0,0,0-1.0987,1.49207v46.37176h32.48644V220.21152A1.56589,1.56589,0,0,0,614.12946,218.64712Zm-11.10915,22.87841a3.40522,3.40522,0,0,1-.70534,2.07985,3.46569,3.46569,0,0,1-6.23054-2.07985V236.145a3.46809,3.46809,0,0,1,6.93588,0Z" transform="translate(-242.69493 -146.28166)" fill="#2f2e41" />
    <path d="M583.11245,265.10026v4.4717a.877.877,0,0,0,.87263.87716h30.94013a.88.88,0,0,0,.87263-.87716v-4.4717Z" transform="translate(-242.69493 -146.28166)" fill="#3f3d56" />
    <path d="M662.7348,146.28166H537.2652a4.07447,4.07447,0,0,0-4.06929,4.06478v84.66823a4.07249,4.07249,0,0,0,4.06929,4.06928H662.7348a4.07251,4.07251,0,0,0,4.06929-4.06928V150.34644A4.07449,4.07449,0,0,0,662.7348,146.28166Z" transform="translate(-242.69493 -146.28166)" fill="#3f3d56" />
    <path d="M661.68583,149.22058H538.30964a2.17955,2.17955,0,0,0-2.1748,2.17934v82.5703a2.17855,2.17855,0,0,0,2.1748,2.1748H661.68583a2.17857,2.17857,0,0,0,2.1748-2.1748v-82.5703A2.17956,2.17956,0,0,0,661.68583,149.22058Z" transform="translate(-242.69493 -146.28166)" fill="#00bfa6" />
    <path d="M638.97921,270.37676l-1.13941-5.41213a1.353,1.353,0,0,0-.841-.98117,1.30849,1.30849,0,0,0-.47927-.09041H565.393a1.30857,1.30857,0,0,0-.47927.09041,1.35308,1.35308,0,0,0-.841.98117l-1.13941,5.41213a1.35065,1.35065,0,0,0,1.32025,1.6277h73.40086a1.33312,1.33312,0,0,0,1.049-.50187A1.34964,1.34964,0,0,0,638.97921,270.37676Z" transform="translate(-242.69493 -146.28166)" fill="#2f2e41" />
    <rect x="323.21938" y="118.5861" width="2.26071" height="1.35643" rx="0.3521" fill="#3f3d56" />
    <rect x="327.7408" y="118.5861" width="2.26071" height="1.35643" rx="0.3521" fill="#3f3d56" />
    <rect x="332.26223" y="118.5861" width="2.26071" height="1.35643" rx="0.3521" fill="#3f3d56" />
    <rect x="336.78366" y="118.5861" width="2.26071" height="1.35643" rx="0.3521" fill="#3f3d56" />
    <rect x="341.30509" y="118.5861" width="2.26071" height="1.35643" rx="0.3521" fill="#3f3d56" />
    <rect x="345.82651" y="118.5861" width="2.26071" height="1.35643" rx="0.3521" fill="#3f3d56" />
    <rect x="350.34794" y="118.5861" width="2.26071" height="1.35643" rx="0.3521" fill="#3f3d56" />
    <rect x="354.86937" y="118.5861" width="2.26071" height="1.35643" rx="0.3521" fill="#3f3d56" />
    <rect x="359.3908" y="118.5861" width="2.26071" height="1.35643" rx="0.3521" fill="#3f3d56" />
    <rect x="363.91222" y="118.5861" width="2.26071" height="1.35643" rx="0.3521" fill="#3f3d56" />
    <rect x="368.43365" y="118.5861" width="2.26071" height="1.35643" rx="0.3521" fill="#3f3d56" />
    <rect x="372.95508" y="118.5861" width="2.26071" height="1.35643" rx="0.3521" fill="#3f3d56" />
    <rect x="377.47651" y="118.5861" width="2.26071" height="1.35643" rx="0.3521" fill="#3f3d56" />
    <rect x="381.99793" y="118.5861" width="2.26071" height="1.35643" rx="0.3521" fill="#3f3d56" />
    <rect x="386.51936" y="118.5861" width="2.26071" height="1.35643" rx="0.3521" fill="#3f3d56" />
    <rect x="391.04079" y="118.5861" width="2.26071" height="1.35643" rx="0.3521" fill="#3f3d56" />
    <rect x="323.16595" y="120.84681" width="2.26071" height="1.35643" rx="0.3521" fill="#3f3d56" />
    <rect x="327.68738" y="120.84681" width="2.26071" height="1.35643" rx="0.3521" fill="#3f3d56" />
    <rect x="332.2088" y="120.84681" width="2.26071" height="1.35643" rx="0.3521" fill="#3f3d56" />
    <rect x="336.73023" y="120.84681" width="2.26071" height="1.35643" rx="0.3521" fill="#3f3d56" />
    <rect x="341.25166" y="120.84681" width="2.26071" height="1.35643" rx="0.3521" fill="#3f3d56" />
    <rect x="345.77309" y="120.84681" width="2.26071" height="1.35643" rx="0.3521" fill="#3f3d56" />
    <rect x="350.29451" y="120.84681" width="2.26071" height="1.35643" rx="0.3521" fill="#3f3d56" />
    <rect x="354.81594" y="120.84681" width="2.26071" height="1.35643" rx="0.3521" fill="#3f3d56" />
    <rect x="359.33737" y="120.84681" width="2.26071" height="1.35643" rx="0.3521" fill="#3f3d56" />
    <rect x="363.8588" y="120.84681" width="2.26071" height="1.35643" rx="0.3521" fill="#3f3d56" />
    <rect x="368.38022" y="120.84681" width="2.26071" height="1.35643" rx="0.3521" fill="#3f3d56" />
    <rect x="372.90165" y="120.84681" width="2.26071" height="1.35643" rx="0.3521" fill="#3f3d56" />
    <rect x="377.42308" y="120.84681" width="2.26071" height="1.35643" rx="0.3521" fill="#3f3d56" />
    <rect x="381.94451" y="120.84681" width="2.26071" height="1.35643" rx="0.3521" fill="#3f3d56" />
    <rect x="386.46593" y="120.84681" width="2.26071" height="1.35643" rx="0.3521" fill="#3f3d56" />
    <rect x="390.98736" y="120.84681" width="2.26071" height="1.35643" rx="0.3521" fill="#3f3d56" />
    <rect x="344.8688" y="123.55967" width="18.08571" height="1.35643" rx="0.3521" fill="#3f3d56" />
    <path d="M655.4861,160.595H540.0435a.45919.45919,0,0,1,0-.91816H655.4861a.45919.45919,0,0,1,0,.91816Z" transform="translate(-242.69493 -146.28166)" fill="#3f3d56" />
    <ellipse cx="305.2069" cy="8.30082" rx="2.69044" ry="2.7504" fill="#3f3d56" />
    <ellipse cx="314.50115" cy="8.30082" rx="2.69044" ry="2.7504" fill="#3f3d56" />
    <ellipse cx="323.79541" cy="8.30082" rx="2.69044" ry="2.7504" fill="#3f3d56" />
    <path d="M649.88941,152.5122h-6.60127a.49975.49975,0,0,0,0,.99924h6.60127a.49967.49967,0,0,0,0-.99924Z" transform="translate(-242.69493 -146.28166)" fill="#3f3d56" />
    <path d="M649.88941,154.3886h-6.60127a.49974.49974,0,0,0,0,.99922h6.60127a.49966.49966,0,0,0,0-.99922Z" transform="translate(-242.69493 -146.28166)" fill="#3f3d56" />
    <path d="M649.88941,156.265h-6.60127a.49975.49975,0,0,0,0,.99924h6.60127a.49967.49967,0,0,0,0-.99924Z" transform="translate(-242.69493 -146.28166)" fill="#3f3d56" />
    <path d="M900.48745,208.10384H814.188a5.09127,5.09127,0,0,0-5.08552,5.08552V266.919a5.0913,5.0913,0,0,0,5.08552,5.08551h86.29934A5.09127,5.09127,0,0,0,905.573,266.919V213.18936A5.09122,5.09122,0,0,0,900.48745,208.10384Z" transform="translate(-242.69493 -146.28166)" fill="#f2f2f2" style="isolation:isolate" />
    <path d="M900.48745,208.10384H814.188a5.09127,5.09127,0,0,0-5.08552,5.08552V266.919a5.0913,5.0913,0,0,0,5.08552,5.08551h86.29934A5.09127,5.09127,0,0,0,905.573,266.919V213.18936A5.09122,5.09122,0,0,0,900.48745,208.10384Zm1.66892,38.59464a20.90605,20.90605,0,0,1-20.554,20.82423c-8.75665.114,4.845.15843-5.71618.15843-24.1499,0-49.33156-.23077-58.72712-.3804a4.7377,4.7377,0,0,1-4.64-4.7184v-49.389a1.67454,1.67454,0,0,1,1.66857-1.67269H900.484a1.67437,1.67437,0,0,1,1.67241,1.66822Z" transform="translate(-242.69493 -146.28166)" fill="#e6e6e6" />
    <path d="M889.86413,177.16465H824.113a2.8259,2.8259,0,0,0-2.65644,1.87324l-10.15481,28.48989a2.82024,2.82024,0,0,0,2.65248,3.767l88.183.15651h.00393a2.82021,2.82021,0,0,0,2.59208-3.93106l-.15376.06583.15376-.06583L892.4562,178.87388A2.81677,2.81677,0,0,0,889.86413,177.16465Z" transform="translate(-242.69493 -146.28166)" fill="#e6e6e6" />
    <path d="M904.96157,208.139a2.82751,2.82751,0,0,1-.22833,1.11119l-12.2763,22.05116a2.828,2.828,0,0,1-2.59276,1.70738H824.11406a2.82786,2.82786,0,0,1-2.65872-1.87227l-10.15287-21.89387a2.81837,2.81837,0,0,1,1.70991-3.60247,2.77457,2.77457,0,0,1,.9412-.16491l10.77189-.02029,4.39654-.00761,57.85259-.10149,4.39907-.0076,10.76428-.0203h.00252A2.82156,2.82156,0,0,1,904.96157,208.139Z" transform="translate(-242.69493 -146.28166)" fill="#e6e6e6" />
    <path d="M820.65772,248.40724c1.30382,0,19.20826,1.09423,19.20826,2.39805s-17.90444,2.32351-19.20826,2.32351a2.36078,2.36078,0,1,1,0-4.72156Z" transform="translate(-242.69493 -146.28166)" fill="#e6e6e6" />
    <path d="M885.76955,159.83291h-55.44a5.61061,5.61061,0,0,0-5.60412,5.60411v67.57166h65.13871a2.78488,2.78488,0,0,0,1.50949-.43891V165.437A5.61062,5.61062,0,0,0,885.76955,159.83291Z" transform="translate(-242.69493 -146.28166)" fill="#f2f2f2" />
    <path d="M864.60886,164.37658H834.22635a5.10933,5.10933,0,0,0-5.10434,5.10182v63.53028H886.9746V186.74233A22.39159,22.39159,0,0,0,864.60886,164.37658Z" transform="translate(-242.69493 -146.28166)" fill="#fff" />
    <path d="M877.11855,227.3665h-38.1405a1.24311,1.24311,0,1,0,0,2.48621h38.1405a1.24311,1.24311,0,1,0,0-2.48621Z" transform="translate(-242.69493 -146.28166)" fill="#e4e4e4" />
    <path d="M877.11855,222.44989h-38.1405a1.24438,1.24438,0,0,0,0,2.48875h38.1405a1.24438,1.24438,0,1,0,0-2.48875Z" transform="translate(-242.69493 -146.28166)" fill="#e4e4e4" />
    <path d="M855.51135,217.53582h-16.5333a1.24311,1.24311,0,1,0,0,2.48621h16.5333a1.24311,1.24311,0,1,0,0-2.48621Z" transform="translate(-242.69493 -146.28166)" fill="#e4e4e4" />
    <path d="M877.11855,207.24088h-38.1405a1.24438,1.24438,0,0,0,0,2.48875h38.1405a1.24438,1.24438,0,1,0,0-2.48875Z" transform="translate(-242.69493 -146.28166)" fill="#e4e4e4" />
    <path d="M877.11855,202.32681h-38.1405a1.24311,1.24311,0,1,0,0,2.48621h38.1405a1.24311,1.24311,0,1,0,0-2.48621Z" transform="translate(-242.69493 -146.28166)" fill="#e4e4e4" />
    <path d="M855.51135,197.4102h-16.5333a1.24438,1.24438,0,0,0,0,2.48875h16.5333a1.24438,1.24438,0,1,0,0-2.48875Z" transform="translate(-242.69493 -146.28166)" fill="#e4e4e4" />
    <path d="M877.11855,187.11526h-38.1405a1.24437,1.24437,0,0,0,0,2.48874h38.1405a1.24437,1.24437,0,1,0,0-2.48874Z" transform="translate(-242.69493 -146.28166)" fill="#e4e4e4" />
    <path d="M877.11855,182.20119h-38.1405a1.24437,1.24437,0,0,0,0,2.48874h38.1405a1.24437,1.24437,0,1,0,0-2.48874Z" transform="translate(-242.69493 -146.28166)" fill="#e4e4e4" />
    <path d="M855.51135,177.28458h-16.5333a1.24438,1.24438,0,0,0,0,2.48875h16.5333a1.24438,1.24438,0,1,0,0-2.48875Z" transform="translate(-242.69493 -146.28166)" fill="#e4e4e4" />
    <path d="M637.763,267.38893a9.33495,9.33495,0,0,0,5.107,13.372l.05606,33.17326,14.37508-9.51454L655.044,274.37642a9.38555,9.38555,0,0,0-17.281-6.98749Z" transform="translate(-242.69493 -146.28166)" fill="#a0616a" />
    <polygon points="295.464 582.823 305.934 587.285 328.126 549.024 312.673 542.439 295.464 582.823" fill="#a0616a" />
    <polygon points="381.984 592.731 393.364 592.73 398.779 548.832 381.982 548.833 381.984 592.731" fill="#a0616a" />
    <path d="M624.27807,750.8849l34.99751-.00132v-.4426a13.62275,13.62275,0,0,0-13.622-13.62179h-.00085L639.26,731.96932l-11.92744,4.85061-3.05506.0001Z" transform="translate(-242.69493 -146.28166)" fill="#2f2e41" />
    <path d="M531.79212,736.70493l32.19593,13.72032.17353-.40716a13.62275,13.62275,0,0,0-7.19063-17.872l-.00078-.00033-3.9794-6.968-12.87426-.21418L537.306,723.766Z" transform="translate(-242.69493 -146.28166)" fill="#2f2e41" />
    <path d="M635.84261,479.20884,653.1391,584.52912l-4.7072,15.69455,6.17682,11.11545-9.0708,97.61779,3.682,8.10634-10.28758,6.34464H617.99862l-1.111-88.37416-5.171-12.97524v-7.15094L601.19,561.01905l-1.1229,66.92229-3.36074,6.48245L566.59958,713.236H543.126l1.81549-13.98591h0c-4.20564-2.1293,6.31428-8.35257,7.32516-12.95687l-3.45641-7.77692,3.45641-14.68973,7.96129-40.85365-8.1343-48.44006,2.9134-31.1786-1.517-10.66537.11511-3.44936s4.01236-1.548.18061-5.41218c-5.30482-30.0716,1.2213-36.59772,1.2213-36.59772l26.119-15.28625Z" transform="translate(-242.69493 -146.28166)" fill="#2f2e41" />
    <circle id="a79b02d6-e761-4bd6-a0ef-3d542dac4d63" data-name="ab6171fa-7d69-4734-b81c-8dff60f9761b" cx="351.02601" cy="170.50502" r="23.72182" fill="#a0616a" />
    <path d="M563.97992,271.28139a9.33491,9.33491,0,0,1-10.18432,10.0584l-13.78326,30.17433-9.147-14.6117,14.4912-26.4139a9.38555,9.38555,0,0,1,18.62339.79287Z" transform="translate(-242.69493 -146.28166)" fill="#a0616a" />
    <path d="M543.24588,370.69189l19.77343-9.44524a2.23889,2.23889,0,0,0,.55755-.37876l13.80277-12.80248a2.239,2.239,0,0,1,1.50586-.59736l24.80544-.18564a2.239,2.239,0,0,1,1.79145.8738l7.54939,9.81421a2.239,2.239,0,0,0,1.05455.75489l20.57322,6.9885a2.239,2.239,0,0,1,1.51625,2.22813L632.48,444.402a2.239,2.239,0,0,0,.17842.99009l1.76718,4.12341a2.23331,2.23331,0,0,1-.51574,2.5046c-.5243.496-1.11322,1.06953-1.49366,1.4902-.76471.84557.86713,7.4681,1.11041,8.43418a2.1373,2.1373,0,0,1,.04691.24583l.913,6.84772a2.239,2.239,0,0,1-.9177,2.11768v0a2.239,2.239,0,0,0-.4072,3.26846l2.00118,2.36384a2.239,2.239,0,0,1,.5105,1.15078l.47947,3.59591a2.2358,2.2358,0,0,1-2.68357,2.48612c-12.42938-2.68076-58.68886-11.21419-75.65721,6.07608a2.23928,2.23928,0,0,1-3.84511-1.73575,46.58382,46.58382,0,0,1,.70547-5.562l1.65653-10.488a2.23911,2.23911,0,0,0-.00594-.73435l-1.51522-8.67956a2.239,2.239,0,0,0-.62243-1.19818l-.50842-.50841a2.239,2.239,0,0,1,0-3.16644l1.9804-1.9804a2.239,2.239,0,0,0,.63563-1.883L553.662,434.68875q-.0079-.05858-.01891-.11668L542.011,373.12872A2.239,2.239,0,0,1,543.24588,370.69189Z" transform="translate(-242.69493 -146.28166)" fill="#3f3d56" />
    <path d="M587.65242,339.347q-.152-.33468-.30318-.67169c.03884.00124.07729.00683.11613.00785Z" transform="translate(-242.69493 -146.28166)" fill="#2f2e41" />
    <polygon points="390.015 253.623 414.69 219.544 427.172 200.795 415.604 144.855 398.943 157.654 400.254 188.847 377.951 220.324 390.015 253.623" fill="#3f3d56" />
    <path d="M614.37355,295.44175a13.35031,13.35031,0,0,0-2.322-5.45857,6.52779,6.52779,0,0,0-9.72559-.29559,7.15818,7.15818,0,0,0,.3148-3.35793,18.18836,18.18836,0,0,1-5.49076,1.63312l4.20949-4.39519-20.95406,1.92519c-2.16263.19868-4.50128.48009-6.08929,2.123-1.58809,1.64286-1.67618,5.14957.331,6.06565-3.95525-1.48949-8.49711.6725-11.10651,4.29482-2.60947,3.62225-3.57037,8.40034-3.74669,13.03558-.22854,6.01066.89166,12.40973,4.5605,16.83492,2.39907,2.89371,5.67038,4.6982,8.32545,7.30153q.03981.039.07948.07849a23.60226,23.60226,0,0,0,22.8465,6.36434c.45271-.12443.90224-.26256,1.354-.39137,2.25812,1.02131,5.07045-.375,6.49577-2.64583,1.52-2.42151,1.82016-5.5199,1.88453-8.47113a69.44585,69.44585,0,0,0-.71089-11.53982c-.62839-4.30188-1.19488-9.81113,2.21217-11.97191,2.65252-1.68225,5.94826-.02217,8.61858,1.625A44.35031,44.35031,0,0,0,614.37355,295.44175Z" transform="translate(-242.69493 -146.28166)" fill="#2f2e41" />
    <polygon points="321.095 258.976 305.289 257.836 277.856 224.249 257.493 195.061 262.183 183.196 290.268 135.478 304.988 147.27 290.935 193.429 318.793 221.287 321.095 258.976" fill="#3f3d56" />
    <circle cx="457.52469" cy="26.00526" r="25.77177" fill="#00bfa6" />
    <path d="M696.70381,185.69992a2.86592,2.86592,0,0,1-2.29317-1.14694l-7.03093-9.37473a2.86669,2.86669,0,1,1,4.58681-3.43988l4.59988,6.13271L708.38059,160.15a2.86681,2.86681,0,1,1,4.77065,3.18044l-14.06186,21.09281a2.868,2.868,0,0,1-2.30578,1.27572C696.757,185.69945,696.73041,185.69992,696.70381,185.69992Z" transform="translate(-242.69493 -146.28166)" fill="#fff" />
</svg>